…
We can find that quadratic regression has smallest mspe and mape. Linear
regression and robust regression have similar intercept, slope, mspe and
mape(sometimes the same results).

## Work with a nested data frame

**Nest the data by country and continent**

``` r
(nest<-group_by(gapminder,continent,country)%>%
  nest())
```

    ## # A tibble: 142 x 3
    ##    continent country     data             
    ##    <fct>     <fct>       <list>           
    ##  1 Asia      Afghanistan <tibble [12 × 4]>
    ##  2 Europe    Albania     <tibble [12 × 4]>
    ##  3 Africa    Algeria     <tibble [12 × 4]>
    ##  4 Africa    Angola      <tibble [12 × 4]>
    ##  5 Americas  Argentina   <tibble [12 × 4]>
    ##  6 Oceania   Australia   <tibble [12 × 4]>
    ##  7 Europe    Austria     <tibble [12 × 4]>
    ##  8 Asia      Bahrain     <tibble [12 × 4]>
    ##  9 Asia      Bangladesh  <tibble [12 × 4]>
    ## 10 Europe    Belgium     <tibble [12 × 4]>
    ## # ... with 132 more rows
…
``` r
(nest<-nest%>%
  mutate(robust_fit = map(data,robust)))
```

    ## Warning in rlm.default(x, y, weights, method = method, wt.method =
    ## wt.method, : 'rlm' failed to converge in 20 steps
    
    ## Warning in rlm.default(x, y, weights, method = method, wt.method =
    ## wt.method, : 'rlm' failed to converge in 20 steps
    
    ## Warning in rlm.default(x, y, weights, method = method, wt.method =
    ## wt.method, : 'rlm' failed to converge in 20 steps

    ## # A tibble: 142 x 4
    ##    continent country     data              robust_fit
    ##    <fct>     <fct>       <list>            <list>    
    ##  1 Asia      Afghanistan <tibble [12 × 4]> <S3: rlm> 
    ##  2 Europe    Albania     <tibble [12 × 4]> <S3: rlm> 
    ##  3 Africa    Algeria     <tibble [12 × 4]> <S3: rlm> 
    ##  4 Africa    Angola      <tibble [12 × 4]> <S3: rlm> 
    ##  5 Americas  Argentina   <tibble [12 × 4]> <S3: rlm> 
    ##  6 Oceania   Australia   <tibble [12 × 4]> <S3: rlm> 
    ##  7 Europe    Austria     <tibble [12 × 4]> <S3: rlm> 
    ##  8 Asia      Bahrain     <tibble [12 × 4]> <S3: rlm> 
    ##  9 Asia      Bangladesh  <tibble [12 × 4]> <S3: rlm> 
    ## 10 Europe    Belgium     <tibble [12 × 4]> <S3: rlm> 
    ## # ... with 132 more rows

**Apply `tidy()` to the model for each country**

``` r
(nest<-nest%>%
  mutate(tidy = map(robust_fit,tidy)))
```

    ## # A tibble: 142 x 5
    ##    continent country     data              robust_fit tidy            
    ##    <fct>     <fct>       <list>            <list>     <list>          
    ##  1 Asia      Afghanistan <tibble [12 × 4]> <S3: rlm>  <tibble [2 × 4]>
    ##  2 Europe    Albania     <tibble [12 × 4]> <S3: rlm>  <tibble [2 × 4]>
    ##  3 Africa    Algeria     <tibble [12 × 4]> <S3: rlm>  <tibble [2 × 4]>
    ##  4 Africa    Angola      <tibble [12 × 4]> <S3: rlm>  <tibble [2 × 4]>
    ##  5 Americas  Argentina   <tibble [12 × 4]> <S3: rlm>  <tibble [2 × 4]>
    ##  6 Oceania   Australia   <tibble [12 × 4]> <S3: rlm>  <tibble [2 × 4]>
    ##  7 Europe    Austria     <tibble [12 × 4]> <S3: rlm>  <tibble [2 × 4]>
    ##  8 Asia      Bahrain     <tibble [12 × 4]> <S3: rlm>  <tibble [2 × 4]>
    ##  9 Asia      Bangladesh  <tibble [12 × 4]> <S3: rlm>  <tibble [2 × 4]>
    ## 10 Europe    Belgium     <tibble [12 × 4]> <S3: rlm>  <tibble [2 × 4]>
    ## # ... with 132 more rows

**Use unnest() function to display the tidy information corresponding to
each country**

``` r
(unnest<-nest%>%
  dplyr::select(continent,country,tidy)%>%
  unnest(tidy))
```

    ## # A tibble: 284 x 6
    ##    continent country     term           estimate std.error statistic
    ##    <fct>     <fct>       <chr>             <dbl>     <dbl>     <dbl>
    ##  1 Asia      Afghanistan (Intercept)      29.9     0.664       45.0 
    ##  2 Asia      Afghanistan I(year - 1952)    0.275   0.0205      13.5 
    ##  3 Europe    Albania     (Intercept)      59.9     0.935       64.1 
    ##  4 Europe    Albania     I(year - 1952)    0.316   0.0288      11.0 
    ##  5 Africa    Algeria     (Intercept)      43.2     0.601       71.8 
    ##  6 Africa    Algeria     I(year - 1952)    0.576   0.0185      31.1 
    ##  7 Africa    Angola      (Intercept)      32.1     0.941       34.2 
    ##  8 Africa    Angola      I(year - 1952)    0.209   0.0290       7.21
    ##  9 Americas  Argentina   (Intercept)      62.7     0.143      438.  
    ## 10 Americas  Argentina   I(year - 1952)    0.233   0.00440     52.9 
    ## # ... with 274 more rows

``` r
#set names "intercept" and "slope"
(unnest<-unnest%>%
  mutate(term = recode(term,
                       "(Intercept)" = "intercept_robust",
                       "I(year - 1952)" = "slope_robust")))
```

    ## # A tibble: 284 x 6
    ##    continent country     term             estimate std.error statistic
    ##    <fct>     <fct>       <chr>               <dbl>     <dbl>     <dbl>
    ##  1 Asia      Afghanistan intercept_robust   29.9     0.664       45.0 
    ##  2 Asia      Afghanistan slope_robust        0.275   0.0205      13.5 
    ##  3 Europe    Albania     intercept_robust   59.9     0.935       64.1 
    ##  4 Europe    Albania     slope_robust        0.316   0.0288      11.0 
    ##  5 Africa    Algeria     intercept_robust   43.2     0.601       71.8 
    ##  6 Africa    Algeria     slope_robust        0.576   0.0185      31.1 
    ##  7 Africa    Angola      intercept_robust   32.1     0.941       34.2 
    ##  8 Africa    Angola      slope_robust        0.209   0.0290       7.21
    ##  9 Americas  Argentina   intercept_robust   62.7     0.143      438.  
    ## 10 Americas  Argentina   slope_robust        0.233   0.00440     52.9 
    ## # ... with 274 more rows

``` r
#using spread() function to reshape unnest
(unnest<-unnest%>%
  dplyr::select(continent:estimate)%>%
  spread(key = term,value = estimate))
```

    ## # A tibble: 142 x 4
    ##    continent country                  intercept_robust slope_robust
    ##    <fct>     <fct>                               <dbl>        <dbl>
    ##  1 Africa    Algeria                              43.2       0.576 
    ##  2 Africa    Angola                               32.1       0.209 
    ##  3 Africa    Benin                                39.6       0.334 
    ##  4 Africa    Botswana                             52.9       0.0607
    ##  5 Africa    Burkina Faso                         34.7       0.364 
    ##  6 Africa    Burundi                              40.6       0.154 
    ##  7 Africa    Cameroon                             41.2       0.250 
    ##  8 Africa    Central African Republic             38.8       0.184 
    ##  9 Africa    Chad                                 39.8       0.255 
    ## 10 Africa    Comoros                              40.0       0.451 
    ## # ... with 132 more rows

**Fit a linear model of life expectancy against year**

``` r
linear<-function(data){
  lm(lifeExp~I(year-1952),data)
}
(nest2<-group_by(gapminder,continent,country)%>%
  nest())
```

    ## # A tibble: 142 x 3
    ##    continent country     data             
    ##    <fct>     <fct>       <list>           
    ##  1 Asia      Afghanistan <tibble [12 × 4]>
    ##  2 Europe    Albania     <tibble [12 × 4]>
    ##  3 Africa    Algeria     <tibble [12 × 4]>
    ##  4 Africa    Angola      <tibble [12 × 4]>
    ##  5 Americas  Argentina   <tibble [12 × 4]>
    ##  6 Oceania   Australia   <tibble [12 × 4]>
    ##  7 Europe    Austria     <tibble [12 × 4]>
    ##  8 Asia      Bahrain     <tibble [12 × 4]>
    ##  9 Asia      Bangladesh  <tibble [12 × 4]>
    ## 10 Europe    Belgium     <tibble [12 × 4]>
    ## # ... with 132 more rows

``` r
(nest2<-nest2%>%
  mutate(linear_fit = map(data,linear)))
```

    ## # A tibble: 142 x 4
    ##    continent country     data              linear_fit
    ##    <fct>     <fct>       <list>            <list>    
    ##  1 Asia      Afghanistan <tibble [12 × 4]> <S3: lm>  
    ##  2 Europe    Albania     <tibble [12 × 4]> <S3: lm>  
    ##  3 Africa    Algeria     <tibble [12 × 4]> <S3: lm>  
    ##  4 Africa    Angola      <tibble [12 × 4]> <S3: lm>  
    ##  5 Americas  Argentina   <tibble [12 × 4]> <S3: lm>  
    ##  6 Oceania   Australia   <tibble [12 × 4]> <S3: lm>  
    ##  7 Europe    Austria     <tibble [12 × 4]> <S3: lm>  
    ##  8 Asia      Bahrain     <tibble [12 × 4]> <S3: lm>  
    ##  9 Asia      Bangladesh  <tibble [12 × 4]> <S3: lm>  
    ## 10 Europe    Belgium     <tibble [12 × 4]> <S3: lm>  
    ## # ... with 132 more rows

``` r
(nest2<-nest2%>%
  mutate(tidy = map(linear_fit,tidy)))
```

    ## # A tibble: 142 x 5
    ##    continent country     data              linear_fit tidy            
    ##    <fct>     <fct>       <list>            <list>     <list>          
    ##  1 Asia      Afghanistan <tibble [12 × 4]> <S3: lm>   <tibble [2 × 5]>
    ##  2 Europe    Albania     <tibble [12 × 4]> <S3: lm>   <tibble [2 × 5]>
    ##  3 Africa    Algeria     <tibble [12 × 4]> <S3: lm>   <tibble [2 × 5]>
    ##  4 Africa    Angola      <tibble [12 × 4]> <S3: lm>   <tibble [2 × 5]>
    ##  5 Americas  Argentina   <tibble [12 × 4]> <S3: lm>   <tibble [2 × 5]>
    ##  6 Oceania   Australia   <tibble [12 × 4]> <S3: lm>   <tibble [2 × 5]>
    ##  7 Europe    Austria     <tibble [12 × 4]> <S3: lm>   <tibble [2 × 5]>
    ##  8 Asia      Bahrain     <tibble [12 × 4]> <S3: lm>   <tibble [2 × 5]>
    ##  9 Asia      Bangladesh  <tibble [12 × 4]> <S3: lm>   <tibble [2 × 5]>
    ## 10 Europe    Belgium     <tibble [12 × 4]> <S3: lm>   <tibble [2 × 5]>
    ## # ... with 132 more rows

``` r
(unnest2<-nest2%>%
  dplyr::select(continent,country,tidy)%>%
  unnest(tidy))
```

    ## # A tibble: 284 x 7
    ##    continent country     term        estimate std.error statistic  p.value
    ##    <fct>     <fct>       <chr>          <dbl>     <dbl>     <dbl>    <dbl>
    ##  1 Asia      Afghanistan (Intercept)   29.9     0.664       45.0  7.00e-13
    ##  2 Asia      Afghanistan I(year - 1…    0.275   0.0205      13.5  9.84e- 8
    ##  3 Europe    Albania     (Intercept)   59.2     1.08        55.0  9.57e-14
    ##  4 Europe    Albania     I(year - 1…    0.335   0.0332      10.1  1.46e- 6
    ##  5 Africa    Algeria     (Intercept)   43.4     0.718       60.4  3.78e-14
    ##  6 Africa    Algeria     I(year - 1…    0.569   0.0221      25.7  1.81e-10
    ##  7 Africa    Angola      (Intercept)   32.1     0.764       42.0  1.39e-12
    ##  8 Africa    Angola      I(year - 1…    0.209   0.0235       8.90 4.59e- 6
    ##  9 Americas  Argentina   (Intercept)   62.7     0.159      395.   2.66e-22
    ## 10 Americas  Argentina   I(year - 1…    0.232   0.00489     47.4  4.22e-13
    ## # ... with 274 more rows

``` r
(unnest2<-unnest2%>%
  mutate(term = recode(term,
                       "(Intercept)" = "intercept_linear",
                       "I(year - 1952)" = "slope_linear")))
```

    ## # A tibble: 284 x 7
    ##    continent country    term         estimate std.error statistic  p.value
    ##    <fct>     <fct>      <chr>           <dbl>     <dbl>     <dbl>    <dbl>
    ##  1 Asia      Afghanist… intercept_l…   29.9     0.664       45.0  7.00e-13
    ##  2 Asia      Afghanist… slope_linear    0.275   0.0205      13.5  9.84e- 8
    ##  3 Europe    Albania    intercept_l…   59.2     1.08        55.0  9.57e-14
    ##  4 Europe    Albania    slope_linear    0.335   0.0332      10.1  1.46e- 6
    ##  5 Africa    Algeria    intercept_l…   43.4     0.718       60.4  3.78e-14
    ##  6 Africa    Algeria    slope_linear    0.569   0.0221      25.7  1.81e-10
    ##  7 Africa    Angola     intercept_l…   32.1     0.764       42.0  1.39e-12
    ##  8 Africa    Angola     slope_linear    0.209   0.0235       8.90 4.59e- 6
    ##  9 Americas  Argentina  intercept_l…   62.7     0.159      395.   2.66e-22
    ## 10 Americas  Argentina  slope_linear    0.232   0.00489     47.4  4.22e-13
    ## # ... with 274 more rows

``` r
(unnest2<-unnest2%>%
  dplyr::select(continent:estimate)%>%
  spread(key = term,value = estimate))
```

    ## # A tibble: 142 x 4
    ##    continent country                  intercept_linear slope_linear
    ##    <fct>     <fct>                               <dbl>        <dbl>
    ##  1 Africa    Algeria                              43.4       0.569 
    ##  2 Africa    Angola                               32.1       0.209 
    ##  3 Africa    Benin                                39.6       0.334 
    ##  4 Africa    Botswana                             52.9       0.0607
    ##  5 Africa    Burkina Faso                         34.7       0.364 
    ##  6 Africa    Burundi                              40.6       0.154 
    ##  7 Africa    Cameroon                             41.2       0.250 
    ##  8 Africa    Central African Republic             38.8       0.184 
    ##  9 Africa    Chad                                 39.8       0.253 
    ## 10 Africa    Comoros                              40.0       0.450 
    ## # ... with 132 more rows
…
